
[
    {
        "id": "1",
        "name": "Green Apples",
        "price": "88",
        "description": "Did you know that there are numerous benefits of green apples and are more nutritious than red apples. Interesting right? Read on this article to know more !",
        "imageUrl": "https://i.pinimg.com/564x/98/d5/c5/98d5c531630d0637f532cf9132feda69.jpg"
    },
    {
        "id": "2",
        "name": "Garlic butter chicken recipe",
        "price": "288",
        "description": "This garlic butter chicken recipe with spinach and bacon is rich, creamy, and hearty - everyone will love it!",
        "imageUrl": "https://www.eatwell101.com/wp-content/uploads/2019/07/ok-Creamy-Garlic-Butter-Chicken-with-Spinach-and-Bacon-5.jpg"
    },
    {
        "id": "3",
        "name": "Strawberries",
        "price": "53",
        "description": "Strawberries – those sweet, bright-red summer fruits you love so much — are not actually berries. You might be surprised, however, by some of the other foods that are technically berries.",
        "imageUrl": "https://i.pinimg.com/564x/d1/7a/77/d17a77389b34daabcfdd58d78fce5c5d.jpg"
    },
    {
        "id": "4",
        "name": "Hamburger",
        "price": "78",
        "description": "A hamburger (also burger for short) is a sandwich consisting of one or more cooked patties of ground meat, usually beef, placed inside a sliced bread roll or bun. The patty may be pan fried, grilled, smoked or flame broiled. Hamburgers are often served with cheese, lettuce, tomato, onion, pickles, bacon, or chiles; condiments such as ketchup, mustard, mayonnaise, relish, or a \"special sauce\", often a variation of Thousand Island dressing; and are frequently placed on sesame seed buns. A hamburger topped with cheese is called a cheeseburger.",
        "imageUrl": "https://i.pinimg.com/564x/31/e0/c0/31e0c0bafd0900d3820d80cd4f9a7ea7.jpg"
    },
    {
        "id": "5",
        "name": "Latte",
        "price": "57",
        "description": "Make the popular coffee house pumpkin spice latte at home. Canned or homemade pumpkin puree both work well in this recipe. Here’s our recipe for making pumpkin puree from scratch",
        "imageUrl": "https://i.pinimg.com/564x/48/f9/0b/48f90b124038d9003c059fdf4c614662.jpg"
    },
    {
        "id": "6",
        "name": "Ice cream Sundaes",
        "price": "33",
        "description": "Simple, creamy, rich and insanely delicious, this Simple & Decadent Homemade Chocolate Ice Cream is going to blow you away. It's the most delicious chocolate ice cream ever!",
        "imageUrl": "https://i.pinimg.com/564x/37/ce/72/37ce72332d8531afac41cd51a2689144.jpg"
    },
    {
        "id": "",
        "name": "",
        "price": "",
        "description": "",
        "imageUrl": ""
    },
    {
        "id": "",
        "name": "",
        "price": "",
        "description": "",
        "imageUrl": ""
    },
    {
        "id": "",
        "name": "",
        "price": "",
        "description": "",
        "imageUrl": ""
    },
    {
        "id": "",
        "name": "",
        "price": "",
        "description": "",
        "imageUrl": ""
    }
]
